…
    ## Rows: 52179 Columns: 12
    ## ── Column specification ────────────────────────────────────────────────────────
    ## Delimiter: ","
    ## chr (9): uid, victim_last, victim_first, victim_race, victim_age, victim_sex...
    ## dbl (3): reported_date, lat, lon
    ## 
    ## ℹ Use `spec()` to retrieve the full column specification for this data.
    ## ℹ Specify the column types or set `show_col_types = FALSE` to quiet this message.

``` r
homicide_data
```

    ## # A tibble: 52,179 × 12
    ##    uid        reported_date victim_last  victim_first victim_race victim_age
    ##    <chr>              <dbl> <chr>        <chr>        <chr>       <chr>     
    ##  1 Alb-000001      20100504 GARCIA       JUAN         Hispanic    78        
    ##  2 Alb-000002      20100216 MONTOYA      CAMERON      Hispanic    17        
    ##  3 Alb-000003      20100601 SATTERFIELD  VIVIANA      White       15        
    ##  4 Alb-000004      20100101 MENDIOLA     CARLOS       Hispanic    32        
    ##  5 Alb-000005      20100102 MULA         VIVIAN       White       72        
    ##  6 Alb-000006      20100126 BOOK         GERALDINE    White       91        
    ##  7 Alb-000007      20100127 MALDONADO    DAVID        Hispanic    52        
    ##  8 Alb-000008      20100127 MALDONADO    CONNIE       Hispanic    52        
    ##  9 Alb-000009      20100130 MARTIN-LEYVA GUSTAVO      White       56        
    ## 10 Alb-000010      20100210 HERRERA      ISRAEL       Hispanic    43        
    ## # ℹ 52,169 more rows
    ## # ℹ 6 more variables: victim_sex <chr>, city <chr>, state <chr>, lat <dbl>,
    ## #   lon <dbl>, disposition <chr>
…
``` r
homicide_tidy_df=
  homicide_data %>% 
  mutate(
    city_state = paste(city, state, sep=", "),
  ) %>% 
  group_by(city_state) %>%
  summarize(total_homicides = n(), 
            unsolved_homicides = sum(disposition %in% c("Closed without arrest", "Open/No arrest"))
  )

homicide_tidy_df
```

    ## # A tibble: 51 × 3
    ##    city_state      total_homicides unsolved_homicides
    ##    <chr>                     <int>              <int>
    ##  1 Albuquerque, NM             378                146
    ##  2 Atlanta, GA                 973                373
    ##  3 Baltimore, MD              2827               1825
    ##  4 Baton Rouge, LA             424                196
    ##  5 Birmingham, AL              800                347
    ##  6 Boston, MA                  614                310
    ##  7 Buffalo, NY                 521                319
    ##  8 Charlotte, NC               687                206
    ##  9 Chicago, IL                5535               4073
    ## 10 Cincinnati, OH              694                309
    ## # ℹ 41 more rows
…
    ## Warning: There was 1 warning in `mutate()`.
    ## ℹ In argument: `prop_test_result = map2(unsolved_homicides, total_homicides,
    ##   prop_test_city)`.
    ## Caused by warning in `prop.test()`:
    ## ! Chi-squared approximation may be incorrect

``` r
cities_prop
```

    ## # A tibble: 51 × 4
    ##    city_state      estimate conf.low conf.high
    ##    <chr>              <dbl>    <dbl>     <dbl>
    ##  1 Albuquerque, NM    0.386    0.337     0.438
    ##  2 Atlanta, GA        0.383    0.353     0.415
    ##  3 Baltimore, MD      0.646    0.628     0.663
    ##  4 Baton Rouge, LA    0.462    0.414     0.511
    ##  5 Birmingham, AL     0.434    0.399     0.469
    ##  6 Boston, MA         0.505    0.465     0.545
    ##  7 Buffalo, NY        0.612    0.569     0.654
    ##  8 Charlotte, NC      0.300    0.266     0.336
    ##  9 Chicago, IL        0.736    0.724     0.747
    ## 10 Cincinnati, OH     0.445    0.408     0.483
    ## # ℹ 41 more rows
…
longitudinal_study_tidy
```

    ## # A tibble: 160 × 4
    ##    group   subject_id week  observation
    ##    <chr>        <int> <chr>       <dbl>
    ##  1 Control          1 1            0.2 
    ##  2 Control          1 2           -1.31
    ##  3 Control          1 3            0.66
    ##  4 Control          1 4            1.96
    ##  5 Control          1 5            0.23
    ##  6 Control          1 6            1.09
    ##  7 Control          1 7            0.05
    ##  8 Control          1 8            1.94
    ##  9 Control          2 1            1.13
    ## 10 Control          2 2           -0.88
    ## # ℹ 150 more rows
…
- Repeat the above for μ={1,2,3,4,5,6}

``` r
sim_test_mu = 
  expand_grid(mu_values = c(1,2,3,4,5,6), 
              iter = 1:5000) %>% 
  mutate(
    estimates_df = map(mu_values, ~sim_test(n = 30, mu = .))) %>%
  unnest(estimates_df)

sim_test_mu
```

    ## # A tibble: 30,000 × 4
    ##    mu_values  iter mu_hat p_value
    ##        <dbl> <int>  <dbl>   <dbl>
    ##  1         1     1 -0.434 0.610  
    ##  2         1     2  1.78  0.0325 
    ##  3         1     3  0.568 0.467  
    ##  4         1     4  1.67  0.141  
    ##  5         1     5  0.590 0.488  
    ##  6         1     6  2.64  0.00667
    ##  7         1     7  1.47  0.0661 
    ##  8         1     8  0.397 0.626  
    ##  9         1     9 -0.542 0.594  
    ## 10         1    10 -0.439 0.609  
    ## # ℹ 29,990 more rows
…
